aluminum_raw_data.csv

Record Length,2500,Points,-302.00000037E-6,-39.99999911E-3,,Record Length,2500,Points,-302.00000037E-6,0.0,
Sample Interval,200.00000234E-9,s,-301.79999885E-6,19.9999996E-3,,Sample Interval,200.00000234E-9,s,-301.79999885E-6,39.99999911E-3,
Trigger Point,1.5100001E3,Samples,-301.59999733E-6,-19.9999996E-3,,Trigger Point,1.5100001E3,Samples,-301.59999733E-6,-39.99999911E-3,
,,,-301.39999581E-6,-19.9999996E-3,,,,,-301.39999581E-6,0.0,
,,,-301.19999428E-6,-19.9999996E-3,,,,,-301.19999428E-6,39.99999911E-3,
,,,-300.99999276E-6,-19.9999996E-3,,,,,-300.99999276E-6,0.0,
Source,CH1,,-300.79999124E-6,-59.999998659E-3,,Source,CH2,,-300.79999124E-6,0.0,
Vertical Units,Volts,,-300.59998971E-6,-19.9999996E-3,,Vertical Units,Volts,,-300.59998971E-6,-39.99999911E-3,
Vertical Scale,499.999988824E-3,,-300.39998819E-6,-19.9999996E-3,,Vertical Scale,999.999977648E-3,,-300.39998819E-6,39.99999911E-3,
Vertical Offset,0,,-300.19998667E-6,0.0,,Vertical Offset,0,,-300.19998667E-6,0.0,
Horizontal Units,s,,-300.00001425E-6,-19.9999996E-3,,Horizontal Units,s,,-300.00001425E-6,39.99999911E-3,
Horizontal Scale,50.00000058E-6,,-299.80001273E-6,-19.9999996E-3,,Horizontal Scale,50.00000058E-6,,-299.80001273E-6,39.99999911E-3,
Pt Fmt,Y,,-299.60001120E-6,-19.9999996E-3,,Pt Fmt,Y,,-299.60001120E-6,39.99999911E-3,
Yzero,120.0000000E-3,,-299.40000968E-6,-19.9999996E-3,,Yzero,-1.4400000,,-299.40000968E-6,39.99999911E-3,
Probe Atten,1.000000,,-299.20000816E-6,-19.9999996E-3,,Probe Atten,1.000000,,-299.20000816E-6,-39.99999911E-3,
,,,-299.00000663E-6,-19.9999996E-3,,,,,-299.00000663E-6,-39.99999911E-3,
Note,TDS 1002B - 10:54:13 AM   3/2/2026,,-298.80000511E-6,-39.99999911E-3,,Note,TDS 1002B - 10:54:13 AM   3/2/2026,,-298.80000511E-6,0.0,
,,,-298.60000359E-6,19.9999996E-3,,,,,-298.60000359E-6,39.99999911E-3,
,,,-298.40000207E-6,-19.9999996E-3,,,,,-298.40000207E-6,39.99999911E-3,
,,,-298.20000054E-6,-39.99999911E-3,,,,,-298.20000054E-6,0.0,
,,,-297.99999902E-6,-39.99999911E-3,,,,,-297.99999902E-6,39.99999911E-3,
,,,-297.79999750E-6,-19.9999996E-3,,,,,-297.79999750E-6,39.99999911E-3,
,,,-297.59999597E-6,-19.9999996E-3,,,,,-297.59999597E-6,39.99999911E-3,
,,,-297.39999445E-6,-19.9999996E-3,,,,,-297.39999445E-6,0.0,
,,,-297.19999293E-6,-19.9999996E-3,,,,,-297.19999293E-6,0.0,
,,,-296.99999141E-6,-39.99999911E-3,,,,,-296.99999141E-6,39.99999911E-3,
,,,-296.79998988E-6,0.0,,,,,-296.79998988E-6,0.0,
,,,-296.59998836E-6,-39.99999911E-3,,,,,-296.59998836E-6,39.99999911E-3,
,,,-296.39998684E-6,0.0,,,,,-296.39998684E-6,39.99999911E-3,
,,,-296.20001442E-6,-19.9999996E-3,,,,,-296.20001442E-6,39.99999911E-3,
,,,-296.00001290E-6,-19.9999996E-3,,,,,-296.00001290E-6,79.999998212E-3,
,,,-295.80001137E-6,-19.9999996E-3,,,,,-295.80001137E-6,39.99999911E-3,
,,,-295.60000985E-6,-19.9999996E-3,,,,,-295.60000985E-6,0.0,
,,,-295.40000833E-6,0.0,,,,,-295.40000833E-6,79.999998212E-3,
,,,-295.20000680E-6,-19.9999996E-3,,,,,-295.20000680E-6,79.999998212E-3,
,,,-295.00000528E-6,-19.9999996E-3,,,,,-295.00000528E-6,39.99999911E-3,
,,,-294.80000376E-6,-19.9999996E-3,,,,,-294.80000376E-6,0.0,
,,,-294.60000223E-6,-19.9999996E-3,,,,,-294.60000223E-6,39.99999911E-3,
,,,-294.40000071E-6,-19.9999996E-3,,,,,-294.40000071E-6,39.99999911E-3,
,,,-294.19999919E-6,-59.999998659E-3,,,,,-294.19999919E-6,39.99999911E-3,
,,,-293.99999767E-6,0.0,,,,,-293.99999767E-6,79.999998212E-3,
,,,-293.79999614E-6,-19.9999996E-3,,,,,-293.79999614E-6,39.99999911E-3,
,,,-293.59999462E-6,-39.99999911E-3,,,,,-293.59999462E-6,39.99999911E-3,
,,,-293.39999310E-6,-39.99999911E-3,,,,,-293.39999310E-6,39.99999911E-3,
,,,-293.19999157E-6,-19.9999996E-3,,,,,-293.19999157E-6,39.99999911E-3,
,,,-292.99999005E-6,-39.99999911E-3,,,,,-292.99999005E-6,79.999998212E-3,
,,,-292.79998853E-6,-39.99999911E-3,,,,,-292.79998853E-6,39.99999911E-3,
,,,-292.59998701E-6,-19.9999996E-3,,,,,-292.59998701E-6,39.99999911E-3,
,,,-292.40001459E-6,0.0,,,,,-292.40001459E-6,39.99999911E-3,
,,,-292.20001306E-6,-19.9999996E-3,,,,,-292.20001306E-6,79.999998212E-3,
,,,-292.00001154E-6,-19.9999996E-3,,,,,-292.00001154E-6,79.999998212E-3,
,,,-291.80001002E-6,-19.9999996E-3,,,,,-291.80001002E-6,79.999998212E-3,
,,,-291.60000850E-6,-39.99999911E-3,,,,,-291.60000850E-6,119.9999973E-3,
,,,-291.40000697E-6,0.0,,,,,-291.40000697E-6,79.999998212E-3,
,,,-291.20000545E-6,-19.9999996E-3,,,,,-291.20000545E-6,79.999998212E-3,
,,,-291.00000393E-6,-39.99999911E-3,,,,,-291.00000393E-6,39.99999911E-3,
,,,-290.80000240E-6,0.0,,,,,-290.80000240E-6,119.9999973E-3,
,,,-290.60000088E-6,-19.9999996E-3,,,,,-290.60000088E-6,39.99999911E-3,
,,,-290.39999936E-6,-19.9999996E-3,,,,,-290.39999936E-6,79.999998212E-3,
,,,-290.19999783E-6,-39.99999911E-3,,,,,-290.19999783E-6,79.999998212E-3,
,,,-289.99999631E-6,-19.9999996E-3,,,,,-289.99999631E-6,119.9999973E-3,
,,,-289.79999479E-6,-39.99999911E-3,,,,,-289.79999479E-6,79.999998212E-3,
,,,-289.59999327E-6,-39.99999911E-3,,,,,-289.59999327E-6,79.999998212E-3,
,,,-289.39999174E-6,-59.999998659E-3,,,,,-289.39999174E-6,79.999998212E-3,
,,,-289.19999022E-6,-19.9999996E-3,,,,,-289.19999022E-6,119.9999973E-3,
,,,-288.99998870E-6,-39.99999911E-3,,,,,-288.99998870E-6,79.999998212E-3,
,,,-288.79998717E-6,-39.99999911E-3,,,,,-288.79998717E-6,79.999998212E-3,
,,,-288.60001476E-6,-19.9999996E-3,,,,,-288.60001476E-6,119.9999973E-3,
,,,-288.40001323E-6,-39.99999911E-3,,,,,-288.40001323E-6,39.99999911E-3,
,,,-288.20001171E-6,-19.9999996E-3,,,,,-288.20001171E-6,119.9999973E-3,
,,,-288.00001019E-6,0.0,,,,,-288.00001019E-6,79.999998212E-3,
,,,-287.80000866E-6,0.0,,,,,-287.80000866E-6,79.999998212E-3,
,,,-287.60000714E-6,-19.9999996E-3,,,,,-287.60000714E-6,39.99999911E-3,
,,,-287.40000562E-6,-19.9999996E-3,,,,,-287.40000562E-6,79.999998212E-3,
,,,-287.20000410E-6,-19.9999996E-3,,,,,-287.20000410E-6,39.99999911E-3,
,,,-287.00000257E-6,-19.9999996E-3,,,,,-287.00000257E-6,79.999998212E-3,
,,,-286.80000105E-6,-19.9999996E-3,,,,,-286.80000105E-6,79.999998212E-3,
,,,-286.59999953E-6,-19.9999996E-3,,,,,-286.59999953E-6,39.99999911E-3,
,,,-286.39999800E-6,-39.99999911E-3,,,,,-286.39999800E-6,79.999998212E-3,
,,,-286.19999648E-6,0.0,,,,,-286.19999648E-6,119.9999973E-3,
,,,-285.99999496E-6,-19.9999996E-3,,,,,-285.99999496E-6,119.9999973E-3,
,,,-285.79999343E-6,-19.9999996E-3,,,,,-285.79999343E-6,79.999998212E-3,
,,,-285.59999191E-6,-19.9999996E-3,,,,,-285.59999191E-6,79.999998212E-3,
,,,-285.39999039E-6,-39.99999911E-3,,,,,-285.39999039E-6,0.0,
,,,-285.19998887E-6,-19.9999996E-3,,,,,-285.19998887E-6,39.99999911E-3,
,,,-284.99998734E-6,-19.9999996E-3,,,,,-284.99998734E-6,39.99999911E-3,
,,,-284.79998582E-6,-19.9999996E-3,,,,,-284.79998582E-6,79.999998212E-3,
,,,-284.60001340E-6,-39.99999911E-3,,,,,-284.60001340E-6,39.99999911E-3,
,,,-284.40001188E-6,-39.99999911E-3,,,,,-284.40001188E-6,39.99999911E-3,
,,,-284.20001036E-6,-19.9999996E-3,,,,,-284.20001036E-6,39.99999911E-3,
,,,-284.00000883E-6,-59.999998659E-3,,,,,-284.00000883E-6,0.0,
,,,-283.80000731E-6,-39.99999911E-3,,,,,-283.80000731E-6,39.99999911E-3,
,,,-283.60000579E-6,0.0,,,,,-283.60000579E-6,39.99999911E-3,
,,,-283.40000426E-6,-19.9999996E-3,,,,,-283.40000426E-6,39.99999911E-3,
,,,-283.20000274E-6,-39.99999911E-3,,,,,-283.20000274E-6,39.99999911E-3,
,,,-283.00000122E-6,-19.9999996E-3,,,,,-283.00000122E-6,39.99999911E-3,
,,,-282.79999970E-6,-19.9999996E-3,,,,,-282.79999970E-6,39.99999911E-3,
,,,-282.59999817E-6,-19.9999996E-3,,,,,-282.59999817E-6,39.99999911E-3,
,,,-282.39999665E-6,-19.9999996E-3,,,,,-282.39999665E-6,39.99999911E-3,
,,,-282.19999513E-6,-19.9999996E-3,,,,,-282.19999513E-6,0.0,
,,,-281.99999360E-6,-19.9999996E-3,,,,,-281.99999360E-6,79.999998212E-3,
,,,-281.79999208E-6,-39.99999911E-3,,,,,-281.79999208E-6,39.99999911E-3,
,,,-281.59999056E-6,-19.9999996E-3,,,,,-281.59999056E-6,0.0,
,,,-281.39998903E-6,-19.9999996E-3,,,,,-281.39998903E-6,39.99999911E-3,
,,,-281.19998751E-6,-19.9999996E-3,,,,,-281.19998751E-6,0.0,
,,,-280.99998599E-6,-19.9999996E-3,,,,,-280.99998599E-6,39.99999911E-3,
,,,-280.80001357E-6,-19.9999996E-3,,,,,-280.80001357E-6,0.0,
,,,-280.60001205E-6,-19.9999996E-3,,,,,-280.60001205E-6,0.0,
,,,-280.40001052E-6,-39.99999911E-3,,,,,-280.40001052E-6,0.0,
,,,-280.20000900E-6,-19.9999996E-3,,,,,-280.20000900E-6,39.99999911E-3,
,,,-280.00000748E-6,-39.99999911E-3,,,,,-280.00000748E-6,0.0,
,,,-279.80000596E-6,-19.9999996E-3,,,,,-279.80000596E-6,-39.99999911E-3,
,,,-279.60000443E-6,0.0,,,,,-279.60000443E-6,0.0,
,,,-279.40000291E-6,0.0,,,,,-279.40000291E-6,0.0,
,,,-279.20000139E-6,-39.99999911E-3,,,,,-279.20000139E-6,0.0,
,,,-278.99999986E-6,-19.9999996E-3,,,,,-278.99999986E-6,39.99999911E-3,
,,,-278.79999834E-6,0.0,,,,,-278.79999834E-6,39.99999911E-3,
,,,-278.59999682E-6,-19.9999996E-3,,,,,-278.59999682E-6,0.0,
,,,-278.39999530E-6,-19.9999996E-3,,,,,-278.39999530E-6,-39.99999911E-3,
,,,-278.19999377E-6,-19.9999996E-3,,,,,-278.19999377E-6,-39.99999911E-3,
,,,-277.99999225E-6,0.0,,,,,-277.99999225E-6,-39.99999911E-3,
,,,-277.79999073E-6,-19.9999996E-3,,,,,-277.79999073E-6,0.0,
,,,-277.59998920E-6,-19.9999996E-3,,,,,-277.59998920E-6,0.0,
,,,-277.39998768E-6,-39.99999911E-3,,,,,-277.39998768E-6,-39.99999911E-3,
,,,-277.19998616E-6,-19.9999996E-3,,,,,-277.19998616E-6,39.99999911E-3,
,,,-277.00001374E-6,-19.9999996E-3,,,,,-277.00001374E-6,-39.99999911E-3,
,,,-276.80001222E-6,-19.9999996E-3,,,,,-276.80001222E-6,0.0,
,,,-276.60001069E-6,-19.9999996E-3,,,,,-276.60001069E-6,0.0,
,,,-276.40000917E-6,-19.9999996E-3,,,,,-276.40000917E-6,0.0,
,,,-276.20000765E-6,-39.99999911E-3,,,,,-276.20000765E-6,79.999998212E-3,
,,,-276.00000612E-6,-19.9999996E-3,,,,,-276.00000612E-6,0.0,
,,,-275.80000460E-6,0.0,,,,,-275.80000460E-6,1.6799999,
,,,-275.60000308E-6,-39.99999911E-3,,,,,-275.60000308E-6,3.39999986,
,,,-275.40000156E-6,0.0,,,,,-275.40000156E-6,2.83999991,
,,,-275.20000003E-6,-19.9999996E-3,,,,,-275.20000003E-6,2.96000004,
,,,-274.99999851E-6,-19.9999996E-3,,,,,-274.99999851E-6,2.91999984,
,,,-274.79999699E-6,-39.99999911E-3,,,,,-274.79999699E-6,2.91999984,
,,,-274.59999546E-6,-19.9999996E-3,,,,,-274.59999546E-6,2.91999984,
,,,-274.39999394E-6,-39.99999911E-3,,,,,-274.39999394E-6,2.91999984,
,,,-274.19999242E-6,-39.99999911E-3,,,,,-274.19999242E-6,2.91999984,
,,,-273.99999090E-6,-39.99999911E-3,,,,,-273.99999090E-6,2.91999984,
,,,-273.79998937E-6,-79.999998212E-3,,,,,-273.79998937E-6,3.00000000,
,,,-273.59998785E-6,-39.99999911E-3,,,,,-273.59998785E-6,2.91999984,
,,,-273.39998633E-6,-39.99999911E-3,,,,,-273.39998633E-6,2.91999984,
,,,-273.20001391E-6,-19.9999996E-3,,,,,-273.20001391E-6,2.96000004,
,,,-273.00001238E-6,-39.99999911E-3,,,,,-273.00001238E-6,2.91999984,
,,,-272.80001086E-6,-19.9999996E-3,,,,,-272.80001086E-6,2.96000004,
,,,-272.60000934E-6,-19.9999996E-3,,,,,-272.60000934E-6,2.91999984,
,,,-272.40000782E-6,0.0,,,,,-272.40000782E-6,2.96000004,
,,,-272.20000629E-6,-39.99999911E-3,,,,,-272.20000629E-6,2.96000004,
,,,-272.00000477E-6,-19.9999996E-3,,,,,-272.00000477E-6,2.96000004,
,,,-271.80000325E-6,-19.9999996E-3,,,,,-271.80000325E-6,2.96000004,
,,,-271.60000172E-6,-19.9999996E-3,,,,,-271.60000172E-6,2.96000004,
,,,-271.40000020E-6,-19.9999996E-3,,,,,-271.40000020E-6,2.91999984,
,,,-271.19999868E-6,-19.9999996E-3,,,,,-271.19999868E-6,3.00000000,
,,,-270.99999716E-6,0.0,,,,,-270.99999716E-6,2.91999984,
,,,-270.79999563E-6,-19.9999996E-3,,,,,-270.79999563E-6,2.96000004,
,,,-270.59999411E-6,-19.9999996E-3,,,,,-270.59999411E-6,3.00000000,
,,,-270.39999259E-6,-19.9999996E-3,,,,,-270.39999259E-6,2.91999984,
,,,-270.19999106E-6,-19.9999996E-3,,,,,-270.19999106E-6,2.91999984,
,,,-269.99998954E-6,-19.9999996E-3,,,,,-269.99998954E-6,3.00000000,
,,,-269.79998802E-6,-19.9999996E-3,,,,,-269.79998802E-6,2.96000004,
,,,-269.59998650E-6,-59.999998659E-3,,,,,-269.59998650E-6,2.96000004,
,,,-269.40001408E-6,-39.99999911E-3,,,,,-269.40001408E-6,2.91999984,
,,,-269.20001255E-6,-39.99999911E-3,,,,,-269.20001255E-6,2.91999984,
,,,-269.00001103E-6,-39.99999911E-3,,,,,-269.00001103E-6,2.87999988,
,,,-268.80000951E-6,-19.9999996E-3,,,,,-268.80000951E-6,3.00000000,
,,,-268.60000798E-6,-59.999998659E-3,,,,,-268.60000798E-6,2.96000004,
,,,-268.40000646E-6,-19.9999996E-3,,,,,-268.40000646E-6,2.91999984,
,,,-268.20000494E-6,-19.9999996E-3,,,,,-268.20000494E-6,2.96000004,
,,,-268.00000342E-6,0.0,,,,,-268.00000342E-6,2.91999984,
,,,-267.80000189E-6,-19.9999996E-3,,,,,-267.80000189E-6,2.91999984,
,,,-267.60000037E-6,-19.9999996E-3,,,,,-267.60000037E-6,2.96000004,
,,,-267.39999885E-6,-19.9999996E-3,,,,,-267.39999885E-6,2.91999984,
,,,-267.19999732E-6,-19.9999996E-3,,,,,-267.19999732E-6,3.00000000,
,,,-266.99999580E-6,-39.99999911E-3,,,,,-266.99999580E-6,2.91999984,
,,,-266.79999428E-6,-19.9999996E-3,,,,,-266.79999428E-6,3.00000000,
,,,-266.59999276E-6,-19.9999996E-3,,,,,-266.59999276E-6,2.96000004,
,,,-266.39999123E-6,-19.9999996E-3,,,,,-266.39999123E-6,2.91999984,
,,,-266.19998971E-6,0.0,,,,,-266.19998971E-6,3.00000000,
,,,-265.99998819E-6,-19.9999996E-3,,,,,-265.99998819E-6,2.96000004,
,,,-265.79998666E-6,-39.99999911E-3,,,,,-265.79998666E-6,3.00000000,
,,,-265.60001425E-6,-19.9999996E-3,,,,,-265.60001425E-6,2.96000004,
,,,-265.40001272E-6,-19.9999996E-3,,,,,-265.40001272E-6,2.96000004,
,,,-265.20001120E-6,-19.9999996E-3,,,,,-265.20001120E-6,2.96000004,
,,,-265.00000968E-6,-19.9999996E-3,,,,,-265.00000968E-6,2.96000004,
,,,-264.80000815E-6,-19.9999996E-3,,,,,-264.80000815E-6,2.87999988,
,,,-264.60000663E-6,-19.9999996E-3,,,,,-264.60000663E-6,2.91999984,
,,,-264.40000511E-6,-39.99999911E-3,,,,,-264.40000511E-6,2.91999984,
,,,-264.20000358E-6,-19.9999996E-3,,,,,-264.20000358E-6,2.91999984,
,,,-264.00000206E-6,-19.9999996E-3,,,,,-264.00000206E-6,2.96000004,
,,,-263.80000054E-6,-19.9999996E-3,,,,,-263.80000054E-6,2.96000004,
,,,-263.59999902E-6,0.0,,,,,-263.59999902E-6,3.00000000,
,,,-263.39999749E-6,-19.9999996E-3,,,,,-263.39999749E-6,2.91999984,
,,,-263.19999597E-6,0.0,,,,,-263.19999597E-6,2.96000004,
,,,-262.99999445E-6,0.0,,,,,-262.99999445E-6,3.00000000,
,,,-262.79999292E-6,0.0,,,,,-262.79999292E-6,2.96000004,
,,,-262.59999140E-6,-19.9999996E-3,,,,,-262.59999140E-6,2.91999984,
,,,-262.39998988E-6,-59.999998659E-3,,,,,-262.39998988E-6,2.96000004,
,,,-262.19998836E-6,0.0,,,,,-262.19998836E-6,2.96000004,
,,,-261.99998683E-6,-39.99999911E-3,,,,,-261.99998683E-6,2.96000004,
,,,-261.80001441E-6,-19.9999996E-3,,,,,-261.80001441E-6,2.91999984,
,,,-261.60001289E-6,-19.9999996E-3,,,,,-261.60001289E-6,2.96000004,
,,,-261.40001137E-6,-39.99999911E-3,,,,,-261.40001137E-6,2.96000004,
,,,-261.20000985E-6,-39.99999911E-3,,,,,-261.20000985E-6,2.96000004,
,,,-261.00000832E-6,-59.999998659E-3,,,,,-261.00000832E-6,2.96000004,
,,,-260.80000680E-6,0.0,,,,,-260.80000680E-6,3.00000000,
,,,-260.60000528E-6,-39.99999911E-3,,,,,-260.60000528E-6,2.96000004,
,,,-260.40000375E-6,-19.9999996E-3,,,,,-260.40000375E-6,2.96000004,
,,,-260.20000223E-6,-39.99999911E-3,,,,,-260.20000223E-6,2.96000004,
,,,-260.00000071E-6,-19.9999996E-3,,,,,-260.00000071E-6,2.96000004,
,,,-259.79999918E-6,-39.99999911E-3,,,,,-259.79999918E-6,2.91999984,
,,,-259.59999766E-6,-19.9999996E-3,,,,,-259.59999766E-6,2.91999984,
,,,-259.39999614E-6,-19.9999996E-3,,,,,-259.39999614E-6,2.91999984,
,,,-259.19999462E-6,-59.999998659E-3,,,,,-259.19999462E-6,2.91999984,
,,,-258.99999309E-6,0.0,,,,,-258.99999309E-6,2.96000004,
,,,-258.79999157E-6,-19.9999996E-3,,,,,-258.79999157E-6,3.00000000,
,,,-258.59999005E-6,0.0,,,,,-258.59999005E-6,2.96000004,
,,,-258.39998852E-6,-19.9999996E-3,,,,,-258.39998852E-6,2.91999984,
,,,-258.19998700E-6,-39.99999911E-3,,,,,-258.19998700E-6,2.96000004,
,,,-257.99998548E-6,-19.9999996E-3,,,,,-257.99998548E-6,2.91999984,
,,,-257.80001306E-6,-39.99999911E-3,,,,,-257.80001306E-6,2.96000004,
,,,-257.60001154E-6,0.0,,,,,-257.60001154E-6,2.91999984,
,,,-257.40001001E-6,-39.99999911E-3,,,,,-257.40001001E-6,2.96000004,
,,,-257.20000849E-6,-19.9999996E-3,,,,,-257.20000849E-6,2.96000004,
,,,-257.00000697E-6,-19.9999996E-3,,,,,-257.00000697E-6,2.91999984,
,,,-256.80000545E-6,-19.9999996E-3,,,,,-256.80000545E-6,2.87999988,
,,,-256.60000392E-6,-19.9999996E-3,,,,,-256.60000392E-6,2.91999984,
,,,-256.40000240E-6,-59.999998659E-3,,,,,-256.40000240E-6,3.00000000,
,,,-256.20000088E-6,-59.999998659E-3,,,,,-256.20000088E-6,2.96000004,
,,,-255.99999935E-6,0.0,,,,,-255.99999935E-6,2.96000004,
,,,-255.79999783E-6,-39.99999911E-3,,,,,-255.79999783E-6,2.96000004,
,,,-255.59999631E-6,-19.9999996E-3,,,,,-255.59999631E-6,3.00000000,
,,,-255.39999478E-6,-19.9999996E-3,,,,,-255.39999478E-6,2.96000004,
,,,-255.19999326E-6,-19.9999996E-3,,,,,-255.19999326E-6,2.96000004,
,,,-254.99999174E-6,-39.99999911E-3,,,,,-254.99999174E-6,3.00000000,
,,,-254.79999022E-6,-19.9999996E-3,,,,,-254.79999022E-6,2.96000004,
,,,-254.59998869E-6,-19.9999996E-3,,,,,-254.59998869E-6,2.96000004,
,,,-254.39998717E-6,0.0,,,,,-254.39998717E-6,2.96000004,
,,,-254.19998565E-6,-19.9999996E-3,,,,,-254.19998565E-6,2.96000004,
,,,-254.00001323E-6,-39.99999911E-3,,,,,-254.00001323E-6,3.00000000,
,,,-253.80001171E-6,-39.99999911E-3,,,,,-253.80001171E-6,3.00000000,
,,,-253.60001018E-6,-39.99999911E-3,,,,,-253.60001018E-6,2.96000004,
,,,-253.40000866E-6,0.0,,,,,-253.40000866E-6,3.00000000,
,,,-253.20000714E-6,-39.99999911E-3,,,,,-253.20000714E-6,2.96000004,
,,,-253.00000561E-6,-39.99999911E-3,,,,,-253.00000561E-6,3.00000000,
,,,-252.80000409E-6,0.0,,,,,-252.80000409E-6,3.00000000,
,,,-252.60000257E-6,0.0,,,,,-252.60000257E-6,3.00000000,
,,,-252.40000105E-6,-19.9999996E-3,,,,,-252.40000105E-6,2.91999984,
,,,-252.19999952E-6,-19.9999996E-3,,,,,-252.19999952E-6,3.00000000,
,,,-251.99999800E-6,-19.9999996E-3,,,,,-251.99999800E-6,2.96000004,
,,,-251.79999648E-6,-19.9999996E-3,,,,,-251.79999648E-6,2.96000004,
,,,-251.59999495E-6,-19.9999996E-3,,,,,-251.59999495E-6,2.91999984,
,,,-251.39999343E-6,-19.9999996E-3,,,,,-251.39999343E-6,3.00000000,
,,,-251.19999191E-6,-19.9999996E-3,,,,,-251.19999191E-6,2.91999984,
,,,-250.99999039E-6,0.0,,,,,-250.99999039E-6,2.96000004,
,,,-250.79998886E-6,-39.99999911E-3,,,,,-250.79998886E-6,2.96000004,
,,,-250.59998734E-6,-39.99999911E-3,,,,,-250.59998734E-6,2.96000004,
,,,-250.39998582E-6,-59.999998659E-3,,,,,-250.39998582E-6,3.00000000,
,,,-250.20001340E-6,-19.9999996E-3,,,,,-250.20001340E-6,3.03999996,
,,,-250.00001187E-6,0.0,,,,,-250.00001187E-6,2.91999984,
,,,-249.80001035E-6,-39.99999911E-3,,,,,-249.80001035E-6,3.00000000,
,,,-249.60000883E-6,-19.9999996E-3,,,,,-249.60000883E-6,2.96000004,
,,,-249.40000731E-6,-19.9999996E-3,,,,,-249.40000731E-6,2.96000004,
,,,-249.20000578E-6,-39.99999911E-3,,,,,-249.20000578E-6,2.91999984,
,,,-249.00000426E-6,-39.99999911E-3,,,,,-249.00000426E-6,3.03999996,
,,,-248.80000274E-6,-39.99999911E-3,,,,,-248.80000274E-6,3.00000000,
,,,-248.60000121E-6,-19.9999996E-3,,,,,-248.60000121E-6,3.00000000,
,,,-248.39999969E-6,0.0,,,,,-248.39999969E-6,2.91999984,
,,,-248.19999817E-6,0.0,,,,,-248.19999817E-6,3.00000000,
,,,-247.99999665E-6,-39.99999911E-3,,,,,-247.99999665E-6,2.91999984,
,,,-247.79999512E-6,-19.9999996E-3,,,,,-247.79999512E-6,2.96000004,
,,,-247.59999360E-6,-19.9999996E-3,,,,,-247.59999360E-6,2.96000004,
,,,-247.39999208E-6,-19.9999996E-3,,,,,-247.39999208E-6,3.00000000,
,,,-247.19999055E-6,-39.99999911E-3,,,,,-247.19999055E-6,2.96000004,
,,,-246.99998903E-6,-19.9999996E-3,,,,,-246.99998903E-6,2.96000004,
,,,-246.79998751E-6,0.0,,,,,-246.79998751E-6,2.91999984,
,,,-246.59998599E-6,-19.9999996E-3,,,,,-246.59998599E-6,2.96000004,
,,,-246.40001357E-6,-39.99999911E-3,,,,,-246.40001357E-6,2.96000004,
,,,-246.20001204E-6,-39.99999911E-3,,,,,-246.20001204E-6,3.00000000,
,,,-246.00001052E-6,-19.9999996E-3,,,,,-246.00001052E-6,2.96000004,
,,,-245.80000900E-6,-19.9999996E-3,,,,,-245.80000900E-6,2.96000004,
,,,-245.60000747E-6,-39.99999911E-3,,,,,-245.60000747E-6,2.96000004,
,,,-245.40000595E-6,-19.9999996E-3,,,,,-245.40000595E-6,2.91999984,
,,,-245.20000443E-6,-19.9999996E-3,,,,,-245.20000443E-6,2.96000004,
,,,-245.00000291E-6,-19.9999996E-3,,,,,-245.00000291E-6,2.96000004,
,,,-244.80000138E-6,-19.9999996E-3,,,,,-244.80000138E-6,3.00000000,
